{
  "project_info": {
    "project_number": "435590493860",
    "project_id": "default-demo-app-6344d"
  },
  "client": [
    {
      "client_info": {
        "mobilesdk_app_id": "1:435590493860:android:f0dc26303e6eb2df",
        "android_client_info": {
          "package_name": "com.taxishare"
        }
      },
      "oauth_client": [
        {
          "client_id": "435590493860-mbaciam7nqe3c69hvc0j3mcuu2b56jb5.apps.googleusercontent.com",
          "client_type": 1,
          "android_info": {
            "package_name": "com.taxishare",
            "certificate_hash": "995CD90FDDABC316FDAC717969A2E016DA83B5AE"
          }
        },
        {
          "client_id": "435590493860-2ddl8ecu54qn97doh9aqfbj009i5pe9m.apps.googleusercontent.com",
          "client_type": 3
        }
      ],
      "api_key": [
        {
          "current_key": "AIzaSyD4YFnGLs1siEEClkTsOBSouVFe-VgRQRw"
        }
      ],
      "services": {
        "analytics_service": {
          "status": 1
        },
        "appinvite_service": {
          "status": 1,
          "other_platform_oauth_client": []
        },
        "ads_service": {
          "status": 1
        }
      }
    }
  ],
  "configuration_version": "1"
}